MAD – Data Analysis & Biostatistics in R
…
FWD and REV as delimiters of all the sequences

Creates much more limited sequence to put in tree

Functions as an informal alignment tool

fra_data_t <- fra_data_t %>% 
  mutate(cropped_seq = seq_crop_pattern(sequence,
                                    pattern_in = list(FWD),
                                    pattern_out = list(REV)),
         new_n_base = nchar(cropped_seq))

Result of Cropping

## # A tibble: 41 x 3
##    taxa                   cropped_seq          new_n_base
##    <chr>                  <chr>                     <int>
##  1 Fragilaria MK576039.1  <NA>                         NA
##  2 Fragilaria joachimii   CATCACTGCTGCTACTATGG        263
##  3 Fragilaria heatherae   CATCACTGCTGCTACTATGG        263
##  4 Fragilaria agnesiae    CATCACTGCTGCTACTATGG        263
##  5 Fragilaria rumpens     <NA>                         NA
##  6 Fragilaria capucina    <NA>                         NA
##  7 Fragilaria crotonensis <NA>                         NA
##  8 Fragilaria MF092945.1  CATCACAGCTGCTACTATGG        263
##  9 Fragilaria MF092943.1  CATTACTGCTGCTACTATGG        263
## 10 Synedra radians        <NA>                         NA
## # ... with 31 more rows

Eliminate the Sequences that Lack the Target Substring

Eliminate those taxa that have a NA cropped region

They are not needed for tree

fra_data_red <- fra_data_t %>% 
  filter(!is.na(cropped_seq))

Reduced Data Set

## # A tibble: 23 x 3
##    taxa                  cropped_seq          new_n_base
##    <chr>                 <chr>                     <int>
##  1 Fragilaria joachimii  CATCACTGCTGCTACTATGG        263
##  2 Fragilaria heatherae  CATCACTGCTGCTACTATGG        263
##  3 Fragilaria agnesiae   CATCACTGCTGCTACTATGG        263
##  4 Fragilaria MF092945.1 CATCACAGCTGCTACTATGG        263
##  5 Fragilaria MF092943.1 CATTACTGCTGCTACTATGG        263
##  6 Fragilaria EU090046.1 CATCACAGCTGCTACTATGG        263
##  7 Fragilaria EU090045.1 CATCACAGCTGCTACTATGG        263
##  8 Fragilaria EU090044.1 CATCACAGCTGCTACTATGG        263
##  9 Fragilaria EU090043.1 CATCACAGCTGCTACTATGG        263
## 10 Fragilaria EU090042.1 CATCACAGCTGCTACTATGG        263
## # ... with 13 more rows
…
Microviridae will deominate heatmap

We can bring them more into scale by normalizing them by family

Calculate the distance from the mean of the family in units of standard deviations (a Z-score) \[Z=\frac{hits - mean(hits)}{std. dev}\]

Calculate Normalized Hits

data_fam_norm <- data_fam_long %>% 
  group_by(family) %>% 
  mutate(norm_hits = (hits - mean(hits))/sd(hits))

Normalized Data

## # A tibble: 114 x 4
## # Groups:   family [6]
##    pac   family          hits norm_hits
##    <chr> <chr>          <dbl>     <dbl>
##  1 JCAN  Herelleviridae    23    -0.201
##  2 JCAN  Microviridae    5185     0.329
##  3 JCAN  Myoviridae       251     0.440
##  4 JCAN  Pithoviridae      31     0.209
##  5 JCAN  Podoviridae      158     0.405
##  6 JCAN  Siphoviridae     358    -0.147
##  7 AAGM  Herelleviridae    15    -0.427
##  8 AAGM  Microviridae     419    -0.622
##  9 AAGM  Myoviridae        60    -0.559
## 10 AAGM  Pithoviridae       5    -0.673
## # ... with 104 more rows
…
