MAD – Data Analysis & Biostatistics in R
…
Bowl has 2,400 well-mixed red and white balls

What proportion are red?

We could take census–count all the balls

Long, boring

Doesn’t teach sampling

bowl <- moderndive::bowl
bowl

## # A tibble: 2,400 x 2
##    ball_ID color
##      <int> <chr>
##  1       1 white
##  2       2 white
##  3       3 white
##  4       4 red  
##  5       5 white
##  6       6 white
##  7       7 red  
##  8       8 white
##  9       9 red  
## 10      10 white
## # ... with 2,390 more rows
…
Nope

Let’s Try to Get a Sample for Each Student in the Class

We have approx. 20 survivors students in the class

Let’s take 20 samples and see the distribution of the proportions

Head Student Samples

student_samples <- rep_sample_n(bowl, size = 50, reps = 20)
student_samples

## # A tibble: 1,000 x 3
## # Groups:   replicate [20]
##    replicate ball_ID color
##        <int>   <int> <chr>
##  1         1    1693 white
##  2         1      25 red  
##  3         1    1907 white
##  4         1     703 white
##  5         1     623 white
##  6         1    2310 red  
##  7         1     943 white
##  8         1     299 red  
##  9         1     754 red  
## 10         1     799 white
## # ... with 990 more rows
…
Let’s Try 1,000 Samples

mil_samples <- rep_sample_n(bowl, size = 50, reps = 1000)
mil_samples

## # A tibble: 50,000 x 3
## # Groups:   replicate [1,000]
##    replicate ball_ID color
##        <int>   <int> <chr>
##  1         1    1775 white
##  2         1     577 white
##  3         1    1082 red  
##  4         1    1847 white
##  5         1     328 white
##  6         1     560 white
##  7         1    1390 red  
##  8         1     203 red  
##  9         1    1071 red  
## 10         1      92 white
## # ... with 49,990 more rows

Calculate Proportion of Reds 1,000 Samples

mil_samp_results <- mil_samples %>% 
  group_by(replicate) %>% 
  summarize(red = sum(color == "red")) %>% 
  mutate(prop_red = red / 50)

## # A tibble: 1,000 x 3
##    replicate   red prop_red
##        <int> <int>    <dbl>
##  1         1    20     0.4 
##  2         2    21     0.42
##  3         3    19     0.38
##  4         4    12     0.24
##  5         5    18     0.36
##  6         6    19     0.38
##  7         7    16     0.32
##  8         8    15     0.3 
##  9         9    18     0.36
## 10        10    22     0.44
## # ... with 990 more rows
…
Most samples have a proportion between 0.35 and 0.40

Population proportion is 0.375

Curve starts to approximate normal curve

What is Impact of Increasing Sample Size

Try sample size of 100 instead of 50

Remain with 1,000 samples

sample_100 <- rep_sample_n(bowl, size = 100, reps = 1000)

## # A tibble: 100,000 x 3
## # Groups:   replicate [1,000]
##    replicate ball_ID color
##        <int>   <int> <chr>
##  1         1     667 white
##  2         1     282 white
##  3         1      95 white
##  4         1    1549 white
##  5         1     453 white
##  6         1     986 red  
##  7         1     224 white
##  8         1    1306 white
##  9         1    1203 red  
## 10         1    2317 white
## # ... with 99,990 more rows

Calculate Proportion of Reds Sample of 100

samp_100_results <- sample_100 %>% 
  group_by(replicate) %>% 
  summarize(red = sum(color == "red")) %>% 
  mutate(prop_red = red / 100)

## # A tibble: 1,000 x 3
##    replicate   red prop_red
##        <int> <int>    <dbl>
##  1         1    37     0.37
##  2         2    37     0.37
##  3         3    41     0.41
##  4         4    44     0.44
##  5         5    37     0.37
##  6         6    46     0.46
##  7         7    36     0.36
##  8         8    36     0.36
##  9         9    37     0.37
## 10        10    36     0.36
## # ... with 990 more rows
…
Blood pressure file: altibaixo_sbp.rds

Only have funds to sample 200 Altibaixianos

alti_baix <- readRDS(here("altibaixo_sbp.rds"))
set.seed(42)
sbp_samp <- alti_baix %>% 
  rep_sample_n(size = 200, replace = FALSE) 
sbp_samp$replicate <- NULL

Altibaixo Blood Pressure Sample

sbp_samp

## # A tibble: 200 x 2
##       id   sbp
##    <int> <dbl>
##  1 61413   143
##  2 54425   150
##  3 34020   117
##  4  8826   149
##  5 46208   144
##  6 47128   111
##  7 16740   140
##  8 61605   141
##  9  7700   121
## 10 36722   102
## # ... with 190 more rows
…
From sample of 200, we will take new sample of 200 with replacement

We will take 50 of these new resamples

resamples <- sbp_samp %>% 
  rep_sample_n(size = 200, replace = TRUE, reps = 50)

Find the Mean SBP of Each Resample

resample_means <- resamples %>% 
  group_by(replicate) %>% 
  summarise(mean_sbp = mean(sbp),
            .groups = "drop")

## # A tibble: 50 x 2
##    replicate mean_sbp
##        <int>    <dbl>
##  1         1     129.
##  2         2     123.
##  3         3     129.
##  4         4     124.
##  5         5     127.
##  6         6     128.
##  7         7     130.
##  8         8     129.
##  9         9     131.
## 10        10     131.
## # ... with 40 more rows
…
Now Try the Resampling 1,000 Times

resamp_mil_means <- sbp_samp %>% 
  rep_sample_n(size = 200, replace = TRUE, reps = 1000) %>% 
  group_by(replicate) %>% 
  summarise(mean_sbp = mean(sbp), .groups = "drop")

## # A tibble: 1,000 x 2
##    replicate mean_sbp
##        <int>    <dbl>
##  1         1     128.
##  2         2     127.
##  3         3     126.
##  4         4     126.
##  5         5     128.
##  6         6     127.
##  7         7     126.
##  8         8     128.
##  9         9     127.
## 10        10     126.
## # ... with 990 more rows
…
Similar to regression

sbp_samp: sbp ~ NULL (no explanatory variable)

Arguments: response = and explanatory =

Similar to dplyr::group_by()

Example

sbp_samp %>%  # original sample used for bootstrap resampling
  specify(response = sbp) # variable we want to measure

## Response: sbp (numeric)
## # A tibble: 200 x 1
##      sbp
##    <dbl>
##  1   143
##  2   150
##  3   117
##  4   149
##  5   144
##  6   111
##  7   140
##  8   141
##  9   121
## 10   102
## # ... with 190 more rows

generate() – Create Replicates

Create the number of replicates you want

`generate(reps = 1000, type = “bootstrap”)

Similar to rep_sample_n()

## Response: sbp (numeric)
## # A tibble: 200,000 x 2
## # Groups:   replicate [1,000]
##    replicate   sbp
##        <int> <dbl>
##  1         1   110
##  2         1   157
##  3         1    84
##  4         1    88
##  5         1   102
##  6         1   176
##  7         1   155
##  8         1   149
##  9         1   117
## 10         1   141
## # ... with 199,990 more rows
calculate() Summary Statistics

Calculates a summary statistic you specify with stat =

Where we calculate the bootstrap distribution of the statistic

Normally has results assigned to a name

Wide variety of stats available

Equivalent of dplyr::summarise()

Bootstrap Sample

## # A tibble: 1,000 x 2
##    replicate  stat
##        <int> <dbl>
##  1         1  127.
##  2         2  127.
##  3         3  126.
##  4         4  126.
##  5         5  127.
##  6         6  125.
##  7         7  126.
##  8         8  126.
##  9         9  128.
## 10        10  127.
## # ... with 990 more rows
…
permute: alternative to bootstrap

Each input value (gender) gets randomly associated with a new output value (decision) for each replicate

This is equivalent to testing the data against the null hypothesis

Calculate the Test Statistic

null_dist <- promotions %>% 
  specify(formula = decision ~ gender, success = "promoted") %>% 
  hypothesize(null = "independence") %>% 
  generate(reps = 1000, type = "permute") %>% 
  calculate(stat = "diff in props", order = c("male", "female"))

## # A tibble: 1,000 x 2
##    replicate    stat
##        <int>   <dbl>
##  1         1 -0.125 
##  2         2  0.0417
##  3         3 -0.0417
##  4         4 -0.292 
##  5         5 -0.125 
##  6         6 -0.0417
##  7         7  0.0417
##  8         8 -0.208 
##  9         9  0.125 
## 10        10 -0.0417
## # ... with 990 more rows
…
Intercept is -$342.20

Credit card debt of someone with 0 credit limit, 0 income and 0 age

Credit limit value is $0.264: for every increase of $1 in credit limit, debt increases $0.26

Income value is -$7.563: for every $1 increase in income, people pay off $7.56 in debt

Age value is -0.802: for every year that people age, they pay off $0.80 in debt

Fitted Values and Residuals

get_regression_points(fit_debt)

## # A tibble: 400 x 7
##       ID  debt credit_limit income   age debt_hat residual
##    <int> <int>        <int>  <dbl> <int>    <dbl>    <dbl>
##  1     1   333         3606   14.9    34     469.   -136. 
##  2     2   903         6645  106.     82     543.    360. 
##  3     3   580         7075  105.     71     676.    -95.6
##  4     4   964         9504  149.     36    1009.    -45.0
##  5     5   331         4897   55.9    68     472.   -141. 
##  6     6  1151         8047   80.2    77    1112.     39.2
##  7     7   203         3388   21.0    37     363.   -160. 
##  8     8   872         7114   71.4    87     924.    -52.0
##  9     9   279         3300   15.1    66     361.    -81.7
## 10    10  1350         6819   71.1    41     886.    464. 
## # ... with 390 more rows
